<svg viewBox="0 0 50 50" xmlns="http://www.w3.org/2000/svg">
<circle cx="25" cy="25" r="25"/>
<path d="M26.769 15.52c-.975-.975-2.559-.975-3.534 0h-.001l-.005.006-7.064 7.063c-.976.976-.976 2.56 0 3.536v-.001c.976.976 2.558.976 3.534 0l2.803-2.802v10.428c0 1.379 1.12 2.5 2.5 2.5s2.499-1.12 2.499-2.5v-10.428l2.802 2.802c.977.976 2.56.976 3.534 0v.001c.977-.976.977-2.56 0-3.536l-7.069-7.069h.001zm19.88-3.018c-6.902-11.954-22.19-16.051-34.145-9.148-11.955 6.901-16.052 22.19-9.148 34.146 6.901 11.954 22.189 16.051 34.143 9.149 11.955-6.903 16.053-22.191 9.15-34.146v-.001zm-11.649 29.815c-9.564 5.522-21.794 2.247-27.315-7.318-5.523-9.563-2.244-21.794 7.319-27.316 9.563-5.522 21.794-2.245 27.316 7.32 5.522 9.564 2.244 21.793-7.319 27.314h-.001z"/>
</svg>
